<svg xmlns="http://www.w3.org/2000/svg" xmlns:xlink="http://www.w3.org/1999/xlink" width="26" height="32" viewBox="0 0 26 32">
    <defs>
        <path id="b" d="M11.667 29.52c7.778-8.131 11.668-14.251 11.668-18.36C23.335 4.997 18.11 0 11.667 0 5.224 0 0 4.997 0 11.16c0 4.109 3.89 10.229 11.667 18.36z"/>
        <filter id="a" width="117.1%" height="113.6%" x="-8.6%" y="-3.4%" filterUnits="objectBoundingBox">
            <feOffset dy="1" in="SourceAlpha" result="shadowOffsetOuter1"/>
            <feGaussianBlur in="shadowOffsetOuter1" result="shadowBlurOuter1" stdDeviation=".5"/>
            <feColorMatrix in="shadowBlurOuter1" values="0 0 0 0 0 0 0 0 0 0 0 0 0 0 0 0 0 0 0.121235281 0"/>
        </filter>
    </defs>
    <g fill="none" fill-rule="evenodd" transform="translate(1)">
        <use fill="#000" filter="url(#a)" xlink:href="#b"/>
        <use fill="#40B508" xlink:href="#b"/>
        <ellipse cx="11.667" cy="10.44" fill="#FFF" rx="7.151" ry="6.84"/>
    </g>
</svg>
